lPath_FLANN_1 = ['-l','flann.lib'];
lPath_FLANN_2 = ['-l','flann_cpp_s.lib'];
lPath_FLANN_3 = ['-l','flann_s.lib'];



lPath_vtk_1 = ['-l','vtkChartsCore-6.2.lib'];
lPath_vtk_2 = ['-l','vtkCommonColor-6.2.lib'];
lPath_vtk_3 = ['-l','vtkCommonComputationalGeometry-6.2.lib'];
lPath_vtk_4 = ['-l','vtkCommonCore-6.2.lib'];
lPath_vtk_5 = ['-l','vtkCommonDataModel-6.2.lib'];
lPath_vtk_6 = ['-l','vtkCommonExecutionModel-6.2.lib'];
lPath_vtk_7 = ['-l','vtkCommonMath-6.2.lib'];
lPath_vtk_8 = ['-l','vtkCommonMisc-6.2.lib'];
lPath_vtk_9 = ['-l','vtkCommonSystem-6.2.lib'];
lPath_vtk_10 = ['-l','vtkCommonTransforms-6.2.lib'];
lPath_vtk_11 = ['-l','vtkDICOMParser-6.2.lib'];
lPath_vtk_12 = ['-l','vtkDomainsChemistry-6.2.lib'];
lPath_vtk_13 = ['-l','vtkFiltersAMR-6.2.lib'];
lPath_vtk_14 = ['-l','vtkFiltersCore-6.2.lib'];
lPath_vtk_15 = ['-l','vtkFiltersExtraction-6.2.lib'];
lPath_vtk_16 = ['-l','vtkFiltersFlowPaths-6.2.lib'];
lPath_vtk_17 = ['-l','vtkFiltersGeneral-6.2.lib'];
lPath_vtk_18 = ['-l','vtkFiltersGeneric-6.2.lib'];
lPath_vtk_19 = ['-l','vtkFiltersGeometry-6.2.lib'];
lPath_vtk_20 = ['-l','vtkFiltersHybrid-6.2.lib'];
lPath_vtk_21 = ['-l','vtkFiltersHyperTree-6.2.lib'];
lPath_vtk_22 = ['-l','vtkFiltersImaging-6.2.lib'];
lPath_vtk_23 = ['-l','vtkFiltersModeling-6.2.lib'];
lPath_vtk_24 = ['-l','vtkFiltersParallel-6.2.lib'];
lPath_vtk_25 = ['-l','vtkFiltersParallelImaging-6.2.lib'];
lPath_vtk_26 = ['-l','vtkFiltersProgrammable-6.2.lib'];
lPath_vtk_27 = ['-l','vtkFiltersSMP-6.2.lib'];
lPath_vtk_28 = ['-l','vtkFiltersSelection-6.2.lib'];
lPath_vtk_29 = ['-l','vtkFiltersSources-6.2.lib'];
lPath_vtk_30 = ['-l','vtkFiltersStatistics-6.2.lib'];
lPath_vtk_31 = ['-l','vtkFiltersTexture-6.2.lib'];
lPath_vtk_32 = ['-l','vtkFiltersVerdict-6.2.lib'];
lPath_vtk_33 = ['-l','vtkGeovisCore-6.2.lib'];
lPath_vtk_34 = ['-l','vtkIOAMR-6.2.lib'];
lPath_vtk_35 = ['-l','vtkIOCore-6.2.lib'];
lPath_vtk_36 = ['-l','vtkIOEnSight-6.2.lib'];
lPath_vtk_37 = ['-l','vtkIOExodus-6.2.lib'];
lPath_vtk_38 = ['-l','vtkIOExport-6.2.lib'];
lPath_vtk_39 = ['-l','vtkIOGeometry-6.2.lib'];
lPath_vtk_40 = ['-l','vtkIOImage-6.2.lib'];
lPath_vtk_41 = ['-l','vtkIOImport-6.2.lib'];
lPath_vtk_42 = ['-l','vtkIOInfovis-6.2.lib'];
lPath_vtk_43 = ['-l','vtkIOLSDyna-6.2.lib'];
lPath_vtk_44 = ['-l','vtkIOLegacy-6.2.lib'];
lPath_vtk_45 = ['-l','vtkIOMINC-6.2.lib'];
lPath_vtk_46 = ['-l','vtkIOMovie-6.2.lib'];
lPath_vtk_47 = ['-l','vtkIONetCDF-6.2.lib'];
lPath_vtk_48 = ['-l','vtkIOPLY-6.2.lib'];
lPath_vtk_49 = ['-l','vtkIOParallel-6.2.lib'];
lPath_vtk_50 = ['-l','vtkIOParallelXML-6.2.lib'];
lPath_vtk_51 = ['-l','vtkIOSQL-6.2.lib'];
lPath_vtk_52 = ['-l','vtkIOVideo-6.2.lib'];
lPath_vtk_53 = ['-l','vtkIOXML-6.2.lib'];
lPath_vtk_54 = ['-l','vtkIOXMLParser-6.2.lib'];
lPath_vtk_55 = ['-l','vtkImagingColor-6.2.lib'];
lPath_vtk_56 = ['-l','vtkImagingCore-6.2.lib'];
lPath_vtk_57 = ['-l','vtkImagingFourier-6.2.lib'];
lPath_vtk_58 = ['-l','vtkImagingGeneral-6.2.lib'];
lPath_vtk_59 = ['-l','vtkImagingHybrid-6.2.lib'];
lPath_vtk_60 = ['-l','vtkImagingMath-6.2.lib'];
lPath_vtk_61 = ['-l','vtkImagingMorphological-6.2.lib'];
lPath_vtk_62 = ['-l','vtkImagingSources-6.2.lib'];
lPath_vtk_63 = ['-l','vtkImagingStatistics-6.2.lib'];
lPath_vtk_64 = ['-l','vtkImagingStencil-6.2.lib'];
lPath_vtk_65 = ['-l','vtkInfovisCore-6.2.lib'];
lPath_vtk_66 = ['-l','vtkInfovisLayout-6.2.lib'];
lPath_vtk_67 = ['-l','vtkInteractionImage-6.2.lib'];
lPath_vtk_68 = ['-l','vtkInteractionStyle-6.2.lib'];
lPath_vtk_69 = ['-l','vtkInteractionWidgets-6.2.lib'];
lPath_vtk_70 = ['-l','vtkNetCDF-6.2.lib'];
lPath_vtk_71 = ['-l','vtkNetCDF_cxx-6.2.lib'];
lPath_vtk_72 = ['-l','vtkParallelCore-6.2.lib'];
lPath_vtk_73 = ['-l','vtktiff-6.2.lib'];
lPath_vtk_74 = ['-l','vtkverdict-6.2.lib'];
lPath_vtk_75 = ['-l','vtkzlib-6.2.lib'];
lPath_vtk_76 = ['-l','vtkRenderingAnnotation-6.2.lib'];
lPath_vtk_77 = ['-l','vtkRenderingContext2D-6.2.lib'];
lPath_vtk_78 = ['-l','vtkRenderingContextOpenGL-6.2.lib'];
lPath_vtk_79 = ['-l','vtkRenderingCore-6.2.lib'];
lPath_vtk_80 = ['-l','vtkRenderingFreeType-6.2.lib'];
lPath_vtk_81 = ['-l','vtkRenderingFreeTypeOpenGL-6.2.lib'];
lPath_vtk_82 = ['-l','vtkRenderingGL2PS-6.2.lib'];
lPath_vtk_83 = ['-l','vtkRenderingImage-6.2.lib'];
lPath_vtk_84 = ['-l','vtkRenderingLIC-6.2.lib'];
lPath_vtk_85 = ['-l','vtkRenderingLOD-6.2.lib'];
lPath_vtk_86 = ['-l','vtkRenderingLabel-6.2.lib'];
lPath_vtk_87 = ['-l','vtkRenderingOpenGL-6.2.lib'];
lPath_vtk_88 = ['-l','vtkRenderingVolume-6.2.lib'];
lPath_vtk_89 = ['-l','vtkRenderingVolumeOpenGL-6.2.lib'];
lPath_vtk_90 = ['-l','vtkViewsContext2D-6.2.lib'];
lPath_vtk_91 = ['-l','vtkViewsCore-6.2.lib'];
lPath_vtk_92 = ['-l','vtkViewsInfovis-6.2.lib'];
lPath_vtk_93 = ['-l','vtkalglib-6.2.lib'];
lPath_vtk_94 = ['-l','vtkexoIIc-6.2.lib'];
lPath_vtk_95 = ['-l','vtkexpat-6.2.lib'];
lPath_vtk_96 = ['-l','vtkfreetype-6.2.lib'];
lPath_vtk_97 = ['-l','vtkftgl-6.2.lib'];
lPath_vtk_98 = ['-l','vtkgl2ps-6.2.lib'];
lPath_vtk_99 = ['-l','vtkhdf5-6.2.lib'];
lPath_vtk_100 = ['-l','vtkhdf5_hl-6.2.lib'];
lPath_vtk_101 = ['-l','vtkjpeg-6.2.lib'];
lPath_vtk_102 = ['-l','vtkjsoncpp-6.2.lib'];
lPath_vtk_103 = ['-l','vtklibxml2-6.2.lib'];
lPath_vtk_104 = ['-l','vtkmetaio-6.2.lib'];
lPath_vtk_105 = ['-l','vtkoggtheora-6.2.lib'];
lPath_vtk_106 = ['-l','vtkpng-6.2.lib'];
lPath_vtk_107 = ['-l','vtkproj4-6.2.lib'];
lPath_vtk_108 = ['-l','vtksqlite-6.2.lib'];
lPath_vtk_109 = ['-l','vtksys-6.2.lib'];







lpath_boost_2 = ['-l','libboost_atomic-vc120-mt-gd-1_57.lib'];
lpath_boost_4 = ['-l','libboost_chrono-vc120-mt-gd-1_57.lib'];
lpath_boost_6 = ['-l','libboost_container-vc120-mt-gd-1_57.lib'];
lpath_boost_8 = ['-l','libboost_context-vc120-mt-gd-1_57.lib'];
lpath_boost_10 = ['-l','libboost_coroutine-vc120-mt-gd-1_57.lib'];
lpath_boost_12 = ['-l','libboost_date_time-vc120-mt-gd-1_57.lib'];
lpath_boost_14 = ['-l','libboost_exception-vc120-mt-gd-1_57.lib'];
lpath_boost_16 = ['-l','libboost_filesystem-vc120-mt-gd-1_57.lib'];
lpath_boost_18 = ['-l','libboost_graph-vc120-mt-gd-1_57.lib'];
lpath_boost_20 = ['-l','libboost_iostreams-vc120-mt-gd-1_57.lib'];
lpath_boost_22 = ['-l','libboost_locale-vc120-mt-gd-1_57.lib'];
lpath_boost_24 = ['-l','libboost_log-vc120-mt-gd-1_57.lib'];
lpath_boost_26 = ['-l','libboost_log_setup-vc120-mt-gd-1_57.lib'];
lpath_boost_28 = ['-l','libboost_math_c99-vc120-mt-gd-1_57.lib'];
lpath_boost_30 = ['-l','libboost_math_c99f-vc120-mt-gd-1_57.lib'];
lpath_boost_32 = ['-l','libboost_math_c99l-vc120-mt-gd-1_57.lib'];
lpath_boost_34 = ['-l','libboost_math_tr1-vc120-mt-gd-1_57.lib'];
lpath_boost_36 = ['-l','libboost_math_tr1f-vc120-mt-gd-1_57.lib'];
lpath_boost_38 = ['-l','libboost_math_tr1l-vc120-mt-gd-1_57.lib'];
lpath_boost_40 = ['-l','libboost_mpi-vc120-mt-gd-1_57.lib'];
lpath_boost_42 = ['-l','libboost_prg_exec_monitor-vc120-mt-gd-1_57.lib'];
lpath_boost_44 = ['-l','libboost_program_options-vc120-mt-gd-1_57.lib'];
lpath_boost_46 = ['-l','libboost_random-vc120-mt-gd-1_57.lib'];
lpath_boost_48 = ['-l','libboost_regex-vc120-mt-gd-1_57.lib'];
lpath_boost_50 = ['-l','libboost_serialization-vc120-mt-gd-1_57.lib'];
lpath_boost_52 = ['-l','libboost_signals-vc120-mt-gd-1_57.lib'];
lpath_boost_54 = ['-l','libboost_system-vc120-mt-gd-1_57.lib'];
lpath_boost_56 = ['-l','libboost_test_exec_monitor-vc120-mt-gd-1_57.lib'];
lpath_boost_58 = ['-l','libboost_thread-vc120-mt-gd-1_57.lib'];
lpath_boost_60 = ['-l','libboost_timer-vc120-mt-gd-1_57.lib'];
lpath_boost_62 = ['-l','libboost_unit_test_framework-vc120-mt-gd-1_57.lib'];
lpath_boost_64 = ['-l','libboost_wave-vc120-mt-gd-1_57.lib'];
lpath_boost_66 = ['-l','libboost_wserialization-vc120-mt-gd-1_57.lib'];

lpath_boost_1 = ['-l','libboost_atomic-vc120-mt-1_57.lib'];
lpath_boost_3 = ['-l','libboost_chrono-vc120-mt-1_57.lib'];
lpath_boost_5 = ['-l','libboost_container-vc120-mt-1_57.lib'];
lpath_boost_7 = ['-l','libboost_context-vc120-mt-1_57.lib'];
lpath_boost_9 = ['-l','libboost_coroutine-vc120-mt-1_57.lib'];
lpath_boost_11 = ['-l','libboost_date_time-vc120-mt-1_57.lib'];
lpath_boost_13 = ['-l','libboost_exception-vc120-mt-1_57.lib'];
lpath_boost_15 = ['-l','libboost_filesystem-vc120-mt-1_57.lib'];
lpath_boost_17 = ['-l','libboost_graph-vc120-mt-1_57.lib'];
lpath_boost_19 = ['-l','libboost_iostreams-vc120-mt-1_57.lib'];
lpath_boost_21 = ['-l','libboost_locale-vc120-mt-1_57.lib'];
lpath_boost_23 = ['-l','libboost_log-vc120-mt-1_57.lib'];
lpath_boost_25 = ['-l','libboost_log_setup-vc120-mt-1_57.lib'];
lpath_boost_27 = ['-l','libboost_math_c99-vc120-mt-1_57.lib'];
lpath_boost_29 = ['-l','libboost_math_c99f-vc120-mt-1_57.lib'];
lpath_boost_31 = ['-l','libboost_math_c99l-vc120-mt-1_57.lib'];
lpath_boost_33 = ['-l','libboost_math_tr1-vc120-mt-1_57.lib'];
lpath_boost_35 = ['-l','libboost_math_tr1f-vc120-mt-1_57.lib'];
lpath_boost_37 = ['-l','libboost_math_tr1l-vc120-mt-1_57.lib'];
lpath_boost_39 = ['-l','libboost_mpi-vc120-mt-1_57.lib'];
lpath_boost_41 = ['-l','libboost_prg_exec_monitor-vc120-mt-1_57.lib'];
lpath_boost_43 = ['-l','libboost_program_options-vc120-mt-1_57.lib'];
lpath_boost_45 = ['-l','libboost_random-vc120-mt-1_57.lib'];
lpath_boost_47 = ['-l','libboost_regex-vc120-mt-1_57.lib'];
lpath_boost_49 = ['-l','libboost_serialization-vc120-mt-1_57.lib'];
lpath_boost_51 = ['-l','libboost_signals-vc120-mt-1_57.lib'];
lpath_boost_53 = ['-l','libboost_system-vc120-mt-1_57.lib'];
lpath_boost_55 = ['-l','libboost_test_exec_monitor-vc120-mt-1_57.lib'];
lpath_boost_57 = ['-l','libboost_thread-vc120-mt-1_57.lib'];
lpath_boost_59 = ['-l','libboost_timer-vc120-mt-1_57.lib'];
lpath_boost_61 = ['-l','libboost_unit_test_framework-vc120-mt-1_57.lib'];
lpath_boost_63 = ['-l','libboost_wave-vc120-mt-1_57.lib'];
lpath_boost_65 = ['-l','libboost_wserialization-vc120-mt-1_57.lib'];